fpga/sim/lab1_sevenSegmentDisplay_testbench.vcd
$date
	Wed Sep  3 00:27:10 2025
$end
$version
	Questa Lattice OEM Edition 2024.2
$end
$timescale
	1ns
$end

$scope module lab1_sevenSegmentDisplay_testbench $end
$var reg 1 ! clk $end
$var reg 1 " reset $end
$var reg 4 # s [3:0] $end
$var reg 7 $ seg [6:0] $end
$var reg 7 % seg_expected [6:0] $end
$var reg 32 & vectornum [31:0] $end
$var reg 32 ' errors [31:0] $end

$scope module dut $end
$var wire 1 ( s [3] $end
$var wire 1 ) s [2] $end
$var wire 1 * s [1] $end
$var wire 1 + s [0] $end
$var reg 3 , led [2:0] $end
$var reg 7 - seg [6:0] $end

$scope module led_ctrl $end
$var wire 1 ( s [3] $end
$var wire 1 ) s [2] $end
$var wire 1 * s [1] $end
$var wire 1 + s [0] $end
$var reg 3 . led [2:0] $end
$var reg 1 / int_osc $end
$var reg 1 0 led_state $end
$var reg 25 1 counter [24:0] $end

$scope module hf_osc $end
$var wire 1 2 CLKHFPU $end
$var wire 1 3 CLKHFEN $end
$var wire 1 4 CLKHF $end
$upscope $end
$upscope $end

$scope module seg_ctrl $end
$var wire 1 ( s [3] $end
$var wire 1 ) s [2] $end
$var wire 1 * s [1] $end
$var wire 1 + s [0] $end
$var reg 7 5 seg [6:0] $end
$upscope $end
$upscope $end
$upscope $end
$enddefinitions $end
#0
$dumpvars
1!
1"
bx #
b1111111 $
bx %
b0 &
b0 '
b0xx ,
b1111111 -
b0xx .
0/
00
b0 1
b1111111 5
x+
x*
x)
x(
13
12
04
$end
#1
b1000000 %
b0 #
0+
0*
0)
0(
b0x0 .
b0 .
b0 ,
b1000000 5
b1000000 -
b1000000 $
#5
0!
#10
1!
14
1/
b1 1
#15
0!
#20
1!
04
0/
#25
0!
#27
0"
#30
1!
14
1/
b10 1
#35
0!
b1 &
#40
1!
04
0/
#41
b1111001 %
b1 #
1+
b1 .
b1 ,
b1111001 5
b1111001 -
b1111001 $
#45
0!
b10 &
#50
1!
14
1/
b11 1
#51
b100100 %
b10 #
0+
1*
b100100 5
b100100 -
b100100 $
#55
0!
b11 &
#60
1!
04
0/
#61
b110000 %
b11 #
1+
b0 .
b0 ,
b110000 5
b110000 -
b110000 $
#65
0!
b100 &
#70
1!
14
1/
b100 1
#71
b11001 %
b100 #
0+
0*
1)
b11001 5
b11001 -
b11001 $
#75
0!
b101 &
#80
1!
04
0/
#81
b10010 %
b101 #
1+
b1 .
b1 ,
b10010 5
b10010 -
b10010 $
#85
0!
b110 &
#90
1!
14
1/
b101 1
#91
b10 %
b110 #
0+
1*
b10 5
b10 -
b10 $
#95
0!
b111 &
#100
1!
04
0/
#101
b1111000 %
b111 #
1+
b0 .
b0 ,
b1111000 5
b1111000 -
b1111000 $
#105
0!
b1000 &
#110
1!
14
1/
b110 1
#111
b0 %
b1000 #
0+
0*
0)
1(
b0 5
b0 -
b0 $
#115
0!
b1001 &
#120
1!
04
0/
#121
b10000 %
b1001 #
1+
b1 .
b1 ,
b10000 5
b10000 -
b10000 $
#125
0!
b1010 &
#130
1!
14
1/
b111 1
#131
b1000 %
b1010 #
0+
1*
b1000 5
b1000 -
b1000 $
#135
0!
b1011 &
#140
1!
04
0/
#141
b11 %
b1011 #
1+
b0 .
b0 ,
b11 5
b11 -
b11 $
#145
0!
b1100 &
#150
1!
14
1/
b1000 1
#151
b1000110 %
b1100 #
0+
0*
1)
b10 .
b10 ,
b1000110 5
b1000110 -
b1000110 $
#155
0!
b1101 &
#160
1!
04
0/
#161
b100001 %
b1101 #
1+
b11 .
b11 ,
b100001 5
b100001 -
b100001 $
#165
0!
b1110 &
#170
1!
14
1/
b1001 1
#171
b110 %
b1110 #
0+
1*
b110 5
b110 -
b110 $
#175
0!
b1111 &
#180
1!
04
0/
#181
b1110 %
b1111 #
1+
b10 .
b10 ,
b1110 5
b1110 -
b1110 $
#185
0!
b10000 &
